<svg xmlns="http://www.w3.org/2000/svg" width="13.031" height="7.03" viewBox="0 0 13.031 7.03">
  <metadata><?xpacket begin="﻿" id="W5M0MpCehiHzreSzNTczkc9d"?>
<x:xmpmeta xmlns:x="adobe:ns:meta/" x:xmptk="Adobe XMP Core 5.6-c138 79.159824, 2016/09/14-01:09:01        ">
   <rdf:RDF xmlns:rdf="http://www.w3.org/1999/02/22-rdf-syntax-ns#">
      <rdf:Description rdf:about=""/>
   </rdf:RDF>
</x:xmpmeta>
                                                                                                    
                                                                                                    
                                                                                                    
                                                                                                    
                                                                                                    
                                                                                                    
                                                                                                    
                                                                                                    
                                                                                                    
                                                                                                    
                                                                                                    
                                                                                                    
                                                                                                    
                                                                                                    
                                                                                                    
                                                                                                    
                                                                                                    
                                                                                                    
                                                                                                    
                                                                                                    
                           
<?xpacket end="w"?></metadata>
<defs>
    <style>
      .cls-1 {
        fill: #fff;
        fill-rule: evenodd;
      }
    </style>
  </defs>
  <path id="Icon_copy" data-name="Icon copy" class="cls-1" d="M541.781,4648.33a0.765,0.765,0,0,0,0-1.11,0.848,0.848,0,0,0-1.151,0l-5.117,4.91-5.118-4.91a0.847,0.847,0,0,0-1.15,0,0.8,0.8,0,0,0-.238.56,0.774,0.774,0,0,0,.238.55l5.694,5.45a0.846,0.846,0,0,0,1.149,0Z" transform="translate(-529 -4647)"/>
</svg>
